DuckDB + dplyr (R) – DuckDB + Polars
…
And our high-dimensional aggregation example. We’ll create a query for this first, since I’ll reuse it shortly again

q3 = nyc |>
  group_by(passenger_count, trip_distance) |>
  summarize(
    across(c(tip_amount, fare_amount), mean),
  ) 
collect(q3)

# A tibble: 25,569 × 4
# Groups:   passenger_count [18]
   passenger_count trip_distance tip_amount fare_amount
             <dbl>         <dbl>      <dbl>       <dbl>
 1               1          0.7       0.493        5.04
 2               2          0.8       0.462        5.44
 3               1          0.8       0.535        5.36
 4               1          1         0.616        6.01
 5               1          0.3       0.334        4.11
 6               1          4.8       1.70        16.0 
 7               2          1         0.525        6.08
 8               1          6.7       2.13        20.1 
 9               1          0.4       0.361        4.17
10               2          0.98      0.542        5.85
# ℹ 25,559 more rows

Pivot (reshape)

# library(tidyr) ## already loaded

q3 |>
  pivot_longer(tip_amount:fare_amount) |>
  collect()

# A tibble: 51,138 × 4
# Groups:   passenger_count [18]
   passenger_count trip_distance name       value
             <dbl>         <dbl> <chr>      <dbl>
 1               1           2.2 tip_amount 1.01 
 2               1          16.8 tip_amount 5.58 
 3               1           2.7 tip_amount 1.16 
 4               1           5.9 tip_amount 1.93 
 5               1           8.4 tip_amount 2.93 
 6               0           2.4 tip_amount 0.924
 7               1           3.8 tip_amount 1.46 
 8               1           5.4 tip_amount 1.83 
 9               1           9.3 tip_amount 3.40 
10               1           9.8 tip_amount 3.60 
# ℹ 51,128 more rows
…
