DuckDB SQL – DuckDB + Polars
…
dat2

┌───────┬─────────────────┬────────────────────┐
│ month │ passenger_count │      mean_tip      │
│ int64 │      int64      │       double       │
├───────┼─────────────────┼────────────────────┤
│     1 │               8 │                0.0 │
│     2 │               8 │                0.5 │
│     1 │               7 │                0.0 │
│     1 │               3 │ 0.8752659692390742 │
│     1 │               6 │ 1.0175694433120148 │
│     2 │               3 │ 0.8948976704752726 │
│     2 │               6 │ 1.0218459360559857 │
│     3 │               6 │ 1.0515659390082825 │
│     3 │               3 │ 0.9121818858010082 │
│     1 │               1 │ 1.0368628142310818 │
│     · │               · │          ·         │
│     · │               · │          ·         │
│     · │               · │          ·         │
│     2 │               2 │ 0.9908003546925661 │
│     3 │               2 │ 1.0096468528132252 │
│     3 │             208 │                0.0 │
│     1 │             208 │                0.0 │
│     1 │               5 │  1.001198485873298 │
│     2 │               5 │ 1.0157674270380461 │
│     3 │               5 │ 1.0353911898062576 │
│     1 │              65 │                0.0 │
│     2 │               9 │                0.0 │
│     1 │               9 │                0.0 │
├───────┴─────────────────┴────────────────────┤
│ 29 rows (20 shown)                 3 columns │
└──────────────────────────────────────────────┘
…
